R para investigación social - 10 Análisis longitundinal: secuencias
…
#skimr::skim(panel_funda)

Nos vamos a quedar con todas las ondas que empezaron en el mismo momento

panel_funda %<>% 
  filter(!is.na(id)) 

Vamos a poner sufijos

panel_funda %<>% rename_at(vars(se1:l1,pol2, nb2,id1), ~ paste0(., '_1'))

panel_funda %>% 
  dplyr::select(starts_with("se1")) # Revisamos

# A tibble: 2,481 × 5
           se1_1          se1_3         se1_3r          se1_4     se1_5
       <dbl+lbl>      <dbl+lbl>      <dbl+lbl>      <dbl+lbl> <dbl+lbl>
 1 0 [Masculino] NA             NA             NA                    NA
 2 1 [Femenino]  NA             NA             NA                    NA
 3 1 [Femenino]   2 [Femenino]   0 [Femenino]   2 [Femenino]         NA
 4 0 [Masculino] NA             NA              1 [Masculino]        NA
 5 1 [Femenino]  NA             NA             NA                    NA
 6 0 [Masculino] NA             NA             NA                    NA
 7 1 [Femenino]  NA             NA             NA                    NA
 8 0 [Masculino]  1 [Masculino]  1 [Masculino]  1 [Masculino]        NA
 9 1 [Femenino]  NA             NA             NA                    NA
10 1 [Femenino]  NA             NA             NA                    NA
# … with 2,471 more rows
…
